…
temporary_residuals = c()
for(i in 1:n_simulations){
    temporary_residuals = c(temporary_residuals, rnorm(nrow(sleep_df), mean = 0, sd = standard_deviation))
}
sleep_df_copy$iteration = rep(1:n_simulations, each = nrow(sleep_df))

sleep_df_copy$Simulated_Reaction = temporary_residuals + rep(model_predictions, n_simulations)
```

At this point each study has 72 observations (18 participants with 4 data points each). We created 100 replications of the study, so our total dataset size is now 7200 rows. Each 72 observation "group" is identified by the `iteration` field. This means that each core should receive approximately 33 iterations with 72 observations per iteration, for a total of around 2400 observations. The data structure that holds the data partitions is called a `party_df` for `partitioned data frame`..or maybe because all of the cores can join the party..I'm not sure. Let's create one and examine the distribution of our observations. 

```{r}
partitioned_experiment <- multidplyr::partition(sleep_df_copy, iteration)

# Source: party_df [7,200 x 5]
# Groups: iteration
# Shards: 3 [2,376--2,448 rows]
# 
# # S3: party_df
#    Reaction  Days Subject Simulated_Reaction iteration
#       <dbl> <dbl>   <dbl>              <dbl>     <int>
# 1  249.5600     0       1           261.4119         2
# 2  258.7047     1       1           269.7817         2
# 3  250.8006     2       1           278.6748         2
# 4  321.4398     3       1           290.9825         2
# 5  222.7339     0       2           192.3452         2
# 6  205.2658     1       2           169.2214         2
# 7  202.9778     2       2           196.4420         2
# 8  204.7070     3       2           228.1363         2
# 9  199.0539     0       3           205.1141         2
# 10 194.3322     1       3           247.2929         2
# ... with 7,190 more rows
```
…
